{
  "schemaVersion": 1,
  "id": "automated_crafting",
  "version": "${version}",

  "name": "Automated Crafting",
  "description": "Adds a simple autocrafter block. Has a simple mode and a... not simple mode. ",
  "authors": [
    "supersaiyansubtlety"
  ],
  "contact": {
    "homepage": "https://github.com/supersaiyansubtlety/automated_crafting",
    "sources": "https://github.com/supersaiyansubtlety/automated_crafting"
  },

  "license": "CC0-1.0",
  "icon": "assets/automated_crafting/automated_crafting_icon.png",

  "environment": "*",
  "entrypoints": {
    "main": [
      "net.sssubtlety.automated_crafting.AutomatedCraftingInit"
    ],
    "client": [
      "net.sssubtlety.automated_crafting.AutomatedCraftingClientInit"
    ],
    "modmenu": [
      "net.sssubtlety.automated_crafting.AutomatedCraftingModMenuIntegration"
    ]
  },
  "mixins": [
    "automated_crafting.mixins.json"
  ],

  "depends": {
    "fabricloader": ">=0.7.4",
    "fabric": ">=0.14.1",
    "minecraft": ">=1.16"
  },
  "suggests": {
    "modmenu": ">=1.12.2+build.17"
  }
}
